{
  "fields": [
     {
      "name": "boolean",
      "type": "boolean"
    },
    {
      "name": "string",
      "type": "string"
    },
    {
      "name": "number",
      "type": "number"
    },
    {
      "name": "integer",
      "type": "integer"
    },
    {
      "name": "date",
      "type": "date"
    },
    {
      "name": "datetime",
      "type": "datetime"
    },
    {
      "name": "year",
      "type": "year"
    },
    {
      "name": "yearmonth",
      "type": "yearmonth"
    }
  ]
}
