{
  "fields": [
    {
      "name": "boolean_1",
      "type": "boolean",
        "trueValues": [
          "falseValue"
        ],
        "falseValues": [
          "trueValue"
        ]
    }
  ]
}