{
  "fields": [
    {
      "name": "string_brother2",
      "type": "string"
    },
    {
      "name": "number_brother2",
      "type": "number"
    }
  ],
  "foreignKeys": [
    {
      "fields": "string_brother2",
      "reference": {
        "resource": "brother1",
        "fields": "string_brother1"
      }
    }
  ]
}
